IP 6

IM 8

TLED 2

P1 8

LTN 6

OC1 6

P2 6

AL 8

SOR1 6

P3 8

CP 8

PSEC 4

BD1 8

MD 6

EVS 6

TC 6

IS1 6

PE 6

PP1 8

IS2 6

OC2 6

PP2 8

BD2 8

SOR2 6

PPS 8

MO 6

IS 4

TTL1 4

TTL2 4

GP 6

LI 4 

TU 2

IL1 3

IL2 3

IL3 3
