"Lunes 18:00hs a 20:00hs"
"Lunes 20:00hs a 22:00hs"
"Martes 18:00hs a 20:00hs"
"Martes 20:00hs a 22:00hs"
"Miercoles 18:00hs a 20:00hs"
"Miercoles 20:00hs a 22:00hs"
"Jueves 18:00hs a 20:00hs"
"Jueves 20:00hs a 22:00hs"
"Viernes 18:00hs a 20:00hs"
"Viernes 20:00hs a 22:00hs"